60 60 60 60 60 60 60 60 60 60 84 76 66 72 68 60 84 84 84 85 85 105 105 85 85 105 74 84 84 
84 63 63 76 82 67 85 73 69 61 118 102 97 87 93 89 81 100 90 108 96 92 84 99 99 99 99 99 99 
99 99 99 99 99 99 99 99 99 99 99 99 99 99 99 99 99 99 85 93 97 109 91 101 106 120 102 94 
106 94 104 94 105 91 105 113 117 129 111 121 126 140 88 98 103 118 88 98 103 117 95 85 100 
85 95 85 96 82 99 114 99 109 99 111 99 107 113 98 93 83 101 89 85 77 94 108 97 107 97 109 
97 105 113 99 94 84 102 90 86 78 106 98 110 98 108 98 109 95 85 93 97 109 91 101 106 120 
96 96 96 96 96 96 96 96 96 96 96 96 96 96 96 96 96 96 96 96 96 96 96 96 100 102 103 101 94 
94 94 90 87 99 87 99 96 108 96 108 96 84 96 84 87 75 87 75 94 100 101 99 99 101 100 94 108 
94 89 79 97 85 81 73 99 87 99 87 90 78 90 78 111 97 92 82 100 88 84 76 89 89 105 105 97 97 
117 116 94 98 98 98 105 107 106 104 98 98 98 98 110 107 106 104 103 105 106 104 97 97 97 93 
96 96 100 95 88 88 88 84 116 102 97 87 105 93 89 81 116 101 96 86 104 92 88 80 120 108 120 
108 111 99 111 99 113 99 94 84 102 90 86 78 123 133 138 148 123 133 138 148 118 118 118 118 
118 118 118 118 128 118 113 103 128 118 113 103 122 122 138 138 130 130 146 146 125 131 132 
130 130 132 131 125 126 126 110 110 118 118 102 102 132 118 113 103 121 109 105 97 147 137 
132 122 147 137 132 122 141 127 122 112 130 118 114 106 148 148 132 132 140 140 124 124 141 
127 122 112 130 118 114 106 